[
    [
        "/Users/inakihernandourcullu/Documents/Saleforce/workspace/sfdx-workspaces/devII/DevMarzo2019/force-app",
        {
            "state": "n",
            "sourcePath": "/Users/inakihernandourcullu/Documents/Saleforce/workspace/sfdx-workspaces/devII/DevMarzo2019/force-app",
            "isDirectory": true,
            "isMetadataFile": false,
            "size": 96,
            "modifiedTime": 1554711494675,
            "changeTime": 1554711494675,
            "contentHash": "b28b7af69320201d1cf206ebf28373980add1451",
            "isWorkspace": false,
            "isArtifactRoot": true
        }
    ],
    [
        "/Users/inakihernandourcullu/Documents/Saleforce/workspace/sfdx-workspaces/devII/DevMarzo2019/force-app/main",
        {
            "state": "n",
            "sourcePath": "/Users/inakihernandourcullu/Documents/Saleforce/workspace/sfdx-workspaces/devII/DevMarzo2019/force-app/main",
            "isDirectory": true,
            "isMetadataFile": false,
            "size": 96,
            "modifiedTime": 1554711494675,
            "changeTime": 1554711494675,
            "contentHash": "7505d64a54e061b7acd54ccd58b49dc43500b635",
            "isWorkspace": false,
            "isArtifactRoot": false
        }
    ],
    [
        "/Users/inakihernandourcullu/Documents/Saleforce/workspace/sfdx-workspaces/devII/DevMarzo2019/force-app/main/default",
        {
            "state": "n",
            "sourcePath": "/Users/inakihernandourcullu/Documents/Saleforce/workspace/sfdx-workspaces/devII/DevMarzo2019/force-app/main/default",
            "isDirectory": true,
            "isMetadataFile": false,
            "size": 128,
            "modifiedTime": 1554711494675,
            "changeTime": 1554711494675,
            "contentHash": "7334b1e8716ee057f8863fce77d3933d5bd9d984",
            "isWorkspace": false,
            "isArtifactRoot": false
        }
    ],
    [
        "/Users/inakihernandourcullu/Documents/Saleforce/workspace/sfdx-workspaces/devII/DevMarzo2019/force-app/main/default/aura",
        {
            "state": "n",
            "sourcePath": "/Users/inakihernandourcullu/Documents/Saleforce/workspace/sfdx-workspaces/devII/DevMarzo2019/force-app/main/default/aura",
            "isDirectory": true,
            "isMetadataFile": false,
            "size": 64,
            "modifiedTime": 1554711494675,
            "changeTime": 1554711494675,
            "contentHash": "da39a3ee5e6b4b0d3255bfef95601890afd80709",
            "isWorkspace": false,
            "isArtifactRoot": false
        }
    ],
    [
        "/Users/inakihernandourcullu/Documents/Saleforce/workspace/sfdx-workspaces/devII/DevMarzo2019/force-app/main/default/lwc",
        {
            "state": "n",
            "sourcePath": "/Users/inakihernandourcullu/Documents/Saleforce/workspace/sfdx-workspaces/devII/DevMarzo2019/force-app/main/default/lwc",
            "isDirectory": true,
            "isMetadataFile": false,
            "size": 128,
            "modifiedTime": 1554711898825,
            "changeTime": 1554711898825,
            "contentHash": "a973ac1b5be0e216b2a2db1b82ae5ba97f4086f4",
            "isWorkspace": false,
            "isArtifactRoot": false
        }
    ],
    [
        "/Users/inakihernandourcullu/Documents/Saleforce/workspace/sfdx-workspaces/devII/DevMarzo2019",
        {
            "state": "n",
            "sourcePath": "/Users/inakihernandourcullu/Documents/Saleforce/workspace/sfdx-workspaces/devII/DevMarzo2019",
            "isDirectory": true,
            "isMetadataFile": false,
            "size": 288,
            "modifiedTime": 1554711896787,
            "changeTime": 1554711896787,
            "contentHash": "482aba1731d0a586e52ba05892f68b26d69ba4fe",
            "isWorkspace": true,
            "isArtifactRoot": false
        }
    ]
]